Map matching in R
…
```r
*gps <- read_csv(
* here("data", "gps.csv"),
* show_col_types = FALSE
*) 

gps
```
]
 
.panel2-read-gps-auto[

```
## # A tibble: 38 x 4
##    sequence speed_mph longitude latitude
##       <dbl>     <dbl>     <dbl>    <dbl>
##  1        1      5.90     -92.2     41.6
##  2        2      5.50     -92.2     41.6
##  3        3      5.21     -92.2     41.6
##  4        4      9.37     -92.2     41.6
##  5        5     13.4      -92.2     41.6
##  6        6     12.1      -92.2     41.6
##  7        7     13.0      -92.2     41.6
##  8        8     13.4      -92.2     41.6
##  9        9     11.6      -92.2     41.6
## 10       10     10.6      -92.2     41.6
## # ... with 28 more rows
```
…
gps
```
]
 
.panel2-read-gps-auto[

```
## Simple feature collection with 38 features and 2 fields
## Geometry type: POINT
## Dimension:     XY
## Bounding box:  xmin: -92.16488 ymin: 41.55675 xmax: -92.15668 ymax: 41.56208
## Geodetic CRS:  WGS 84
## # A tibble: 38 x 3
##    sequence speed_mph             geometry
##  *    <dbl>     <dbl>          <POINT [°]>
##  1        1      5.90   (-92.16488 41.557)
##  2        2      5.50 (-92.16471 41.55698)
##  3        3      5.21 (-92.16432 41.55699)
##  4        4      9.37 (-92.16412 41.55698)
##  5        5     13.4  (-92.16378 41.55697)
##  6        6     12.1  (-92.16342 41.55698)
##  7        7     13.0  (-92.16302 41.55699)
##  8        8     13.4  (-92.16263 41.55701)
##  9        9     11.6     (-92.1623 41.557)
## 10       10     10.6  (-92.16199 41.55698)
## # ... with 28 more rows
```
…
gps
```
]
 
.panel2-read-gps-auto[

```
## Simple feature collection with 38 features and 2 fields
## Geometry type: POINT
## Dimension:     XY
## Bounding box:  xmin: 569640.7 ymin: 4600905 xmax: 570320 ymax: 4601499
## Projected CRS: NAD83 / UTM zone 15N
## # A tibble: 38 x 3
##    sequence speed_mph           geometry
##  *    <dbl>     <dbl>        <POINT [m]>
##  1        1      5.90 (569640.7 4600930)
##  2        2      5.50 (569654.5 4600928)
##  3        3      5.21   (569687 4600928)
##  4        4      9.37 (569703.7 4600927)
##  5        5     13.4  (569732.3 4600927)
##  6        6     12.1  (569762.1 4600928)
##  7        7     13.0    (569796 4600930)
##  8        8     13.4  (569828.1 4600932)
##  9        9     11.6  (569855.7 4600931)
## 10       10     10.6  (569881.7 4600929)
## # ... with 28 more rows
```
…
*reveal <- gps

reveal
```
]
 
.panel2-transform-gps-demo-user[

```
## Simple feature collection with 38 features and 2 fields
## Geometry type: POINT
## Dimension:     XY
## Bounding box:  xmin: 569640.7 ymin: 4600905 xmax: 570320 ymax: 4601499
## Projected CRS: NAD83 / UTM zone 15N
## # A tibble: 38 x 3
##    sequence speed_mph           geometry
##  *    <dbl>     <dbl>        <POINT [m]>
##  1        1      5.90 (569640.7 4600930)
##  2        2      5.50 (569654.5 4600928)
##  3        3      5.21   (569687 4600928)
##  4        4      9.37 (569703.7 4600927)
##  5        5     13.4  (569732.3 4600927)
##  6        6     12.1  (569762.1 4600928)
##  7        7     13.0    (569796 4600930)
##  8        8     13.4  (569828.1 4600932)
##  9        9     11.6  (569855.7 4600931)
## 10       10     10.6  (569881.7 4600929)
## # ... with 28 more rows
```
…
```r
reveal <- args(.transform_gps)

reveal <- gps %>%
* .transform_gps()

reveal
```
]
 
.panel2-transform-gps-demo-user[

```
## # A tibble: 38 x 3
##       id       x        y
##    <dbl>   <dbl>    <dbl>
##  1     1 569641. 4600930.
##  2     1 569654. 4600928.
##  3     1 569687. 4600928.
##  4     1 569704. 4600927.
##  5     1 569732. 4600927.
##  6     1 569762. 4600928.
##  7     1 569796. 4600930.
##  8     1 569828. 4600932.
##  9     1 569856. 4600931.
## 10     1 569882. 4600929.
## # ... with 28 more rows
```
…
